{
"extension-id": "arcmenu",
"uuid": "arcmenu@arcmenu.com",
"settings-schema": "org.gnome.shell.extensions.arcmenu",
"gettext-domain": "arcmenu",
"name": "ArcMenu",
"description": "Application Menu Extension for GNOME",
"version": 35,
"shell-version": [ "42" ],
"url": "https://gitlab.com/arcmenu/ArcMenu"
}
